22_gams.utf8.md
…
Peeking Inside the Black Box

predict(fit, type = "lpmatrix") %>%
  as_tibble()

# A tibble: 5,868 x 10
   `(Intercept)` `s(Temp).1` `s(Temp).2` `s(Temp).3` `s(Temp).4`
           <dbl>       <dbl>       <dbl>       <dbl>       <dbl>
 1             1     -0.0196     -0.0116     -0.0122     -0.0349
 2             1     -0.0196     -0.0116     -0.0122     -0.0349
 3             1     -0.165       0.0358      0.847      -0.217 
 4             1     -0.178      -0.0933     -0.155      -0.148 
 5             1     -0.130      -0.0651     -0.127      -0.0579
 6             1     -0.169      -0.0867     -0.154      -0.113 
 7             1     -0.169      -0.0871     -0.154      -0.115 
 8             1     -0.511      -0.264      -0.462      -0.361 
 9             1     -0.348      -0.181      -0.311      -0.263 
10             1     -0.315      -0.164      -0.280      -0.242 
# … with 5,858 more rows, and 5 more variables: `s(Temp).5` <dbl>,
#   `s(Temp).6` <dbl>, `s(Temp).7` <dbl>, `s(Temp).8` <dbl>,
#   `s(Temp).9` <dbl>
…
Many Things Underlying This Pattern

# A tibble: 1,071 x 7
   county cases population race  gender age          rate
   <fct>  <int>      <int> <fct> <fct>  <fct>       <dbl>
 1 adams      0       1492 o     f      Under.40 0       
 2 adams      0        365 o     f      40.59    0       
 3 adams      1         68 o     f      60.69    0.0147  
 4 adams      0         73 o     f      70+      0       
 5 adams      0      23351 w     f      Under.40 0       
 6 adams      5      12136 w     f      40.59    0.000412
 7 adams      5       3609 w     f      60.69    0.00139 
 8 adams     18       5411 w     f      70+      0.00333 
 9 adams      0       1697 o     m      Under.40 0       
10 adams      0        387 o     m      40.59    0       
# … with 1,061 more rows
…
